…
First, we load the data from Combined Land-Surface Air and Sea-Surface Water Temperature Anomalies in the Northern Hemisphere at NASA’s Goddard Institute for Space Studies. The tabular data of temperature anomalies can be found here

weather <- 
  read_csv("https://data.giss.nasa.gov/gistemp/tabledata_v4/NH.Ts+dSST.csv", 
           skip = 1, 
           na = "***")

We modified the data by adding skip and na, and we select the year and the twelve month variables from the dataset while deleting the rest as they are non-relevant.

tidyweather <- weather %>%  select(1:13) %>% pivot_longer(cols=2:13, names_to = "Month", values_to="delta")

tidyweather

## # A tibble: 1,704 x 3
##     Year Month delta
##    <dbl> <chr> <dbl>
##  1  1880 Jan   -0.35
##  2  1880 Feb   -0.5 
##  3  1880 Mar   -0.23
##  4  1880 Apr   -0.29
##  5  1880 May   -0.05
##  6  1880 Jun   -0.15
##  7  1880 Jul   -0.18
##  8  1880 Aug   -0.25
##  9  1880 Sep   -0.23
## 10  1880 Oct   -0.32
## # … with 1,694 more rows
…
HIV_Value
1781
0.65
1.74
4.09
0.01
0.1
0.3
1.2
26.5
▇▁▁▁▁

hiv_long

## # A tibble: 5,082 x 3
##    country     Year  HIV_Value
##    <chr>       <chr>     <dbl>
##  1 Afghanistan 1979         NA
##  2 Afghanistan 1980         NA
##  3 Afghanistan 1981         NA
##  4 Afghanistan 1982         NA
##  5 Afghanistan 1983         NA
##  6 Afghanistan 1984         NA
##  7 Afghanistan 1985         NA
##  8 Afghanistan 1986         NA
##  9 Afghanistan 1987         NA
## 10 Afghanistan 1988         NA
## # … with 5,072 more rows
…
Life_Expectancy_Value
759
0.99
53
21.7
1.01
32.3
48.7
74.2
94.8
▁▇▂▅▅

life_expectancy_long

## # A tibble: 56,287 x 3
##    country     Year  Life_Expectancy_Value
##    <chr>       <chr>                 <dbl>
##  1 Afghanistan 1800                   28.2
##  2 Afghanistan 1801                   28.2
##  3 Afghanistan 1802                   28.2
##  4 Afghanistan 1803                   28.2
##  5 Afghanistan 1804                   28.2
##  6 Afghanistan 1805                   28.2
##  7 Afghanistan 1806                   28.1
##  8 Afghanistan 1807                   28.1
##  9 Afghanistan 1808                   28.1
## 10 Afghanistan 1809                   28.1
## # … with 56,277 more rows
…
#as per our analysis the lesser mortality range difference means the worst improvement and the largest mortality rate differnce in 1979 and 2011 shows the best improved country

mortality_best5 <- mortality_1979_2011_ranked %>% filter( asc_ranking <=5  )

mortality_worst5 <- mortality_1979_2011_ranked %>% filter( dsc_ranking <=5  )

mortality_worst5 <-select( mortality_worst5  , c ( "continent" , "country"))

mortality_worst5

## # A tibble: 24 x 2
## # Groups:   continent [5]
##    continent country                 
##    <chr>     <chr>                   
##  1 Africa    Botswana                
##  2 Africa    Central African Republic
##  3 Africa    Lesotho                 
##  4 Africa    Mauritius               
##  5 Africa    Zimbabwe                
##  6 Americas  Barbados                
##  7 Americas  Canada                  
##  8 Americas  Costa Rica              
##  9 Americas  Cuba                    
## 10 Americas  United States           
## # … with 14 more rows

mortality_best5 <-select( mortality_worst5  , c ( "continent" , "country"))

mortality_best5

## # A tibble: 24 x 2
## # Groups:   continent [5]
##    continent country                 
##    <chr>     <chr>                   
##  1 Africa    Botswana                
##  2 Africa    Central African Republic
##  3 Africa    Lesotho                 
##  4 Africa    Mauritius               
##  5 Africa    Zimbabwe                
##  6 Americas  Barbados                
##  7 Americas  Canada                  
##  8 Americas  Costa Rica              
##  9 Americas  Cuba                    
## 10 Americas  United States           
## # … with 14 more rows
…
